STA/ISS 313 - Facets and Compounding
…
.pull-right[
- More information at the package homepage.
- <http://kjhealy.github.io/covdata>
]

---

# Let's take a look

```r
stmf
```

```
## # A tibble: 533,235 × 17
##    country_code cname     iso2  continent iso3   year  week sex   split split_sex
##    <chr>        <chr>     <chr> <chr>     <chr> <dbl> <dbl> <chr> <dbl>     <dbl>
##  1 AUS          Australia AU    Oceania   AUS    2015     1 m         1         0
##  2 AUS          Australia AU    Oceania   AUS    2015     1 m         1         0
##  3 AUS          Australia AU    Oceania   AUS    2015     1 m         1         0
##  4 AUS          Australia AU    Oceania   AUS    2015     1 m         1         0
##  5 AUS          Australia AU    Oceania   AUS    2015     1 m         1         0
##  6 AUS          Australia AU    Oceania   AUS    2015     1 f         1         0
##  7 AUS          Australia AU    Oceania   AUS    2015     1 f         1         0
##  8 AUS          Australia AU    Oceania   AUS    2015     1 f         1         0
##  9 AUS          Australia AU    Oceania   AUS    2015     1 f         1         0
## 10 AUS          Australia AU    Oceania   AUS    2015     1 f         1         0
## # … with 533,225 more rows, and 7 more variables: forecast <dbl>,
## #   approx_date <date>, age_group <chr>, death_count <dbl>, death_rate <dbl>,
## #   deaths_total <dbl>, rate_total <dbl>
```
…
